﻿Кросовер(A, B):
    // ЦФ(A) > ЦФ(B)
    min_f = ЦФ(А)   // мінімальне значення ЦФ
    r1, r2, r3 = 3  // Відступи
    C = A   // Потомок
    s = 0   // Номер кроку
    
    // Побудова променю від гіршого розв'язку до кращого
    for i = 0 to <Кількість міст>:
        if (C[i] != B[i]):
            s++
            j = [x | C[x] == B[i]]
            Транспозиція(C[i], С[j])
            if (ЦФ(C) < min_f and s > r1):
                k = <Кількість транспозицій, необхідна щоб C == B>
                if (k > r2):
                    min_f = ЦФ(C)
                else:
                    Вийти з циклу
            
    // Продовження променю за межі кращого розв'язку
    l = s  // на скыльки далеко продовжувати
    s = 0
    for i = 0 to l:
        if (C[i] != A[i]):
            s++
            j = ВипадковеЧисло([i+1, <Кількість міст>))
            Транспозиція(C[i], С[j])
            if (ЦФ(C) < min_f and s > r3):
                min_f = ЦФ(C)
                
    Повернути С, що выдповідає min_f.
    
H метод:
    обрати початкову популяцію (випадкові розв'язки, над якими проведено операцію ДЛП)
    
    відбір для кросоверу з загальної популяції (рулетка)
    кросовер
    покращеня нащадків за допомогою ДЛА
    додання покращених нащадків до загальної популяції
    
    відбір для мутації з загальної популяції (рулетка)
    мутація (транспозиційнаб випадкова кількість транспозицій з [1, 3])
    покращеня мутантів за допомогою ДЛА
    додання покращених мутантів до загальної популяції
    
    відсіювання (відкидаються найгірші особи, щоб розмір популяції став початковий)
    