Name,Size,Type,Exact,H,Result,Time,q%
problems/br17.atsp,17,ATSP,39,      ,39,0.174,0.00
problems/ftv33.atsp,34,ATSP,1286,      ,1286,1.262,0.00
problems/ftv35.atsp,36,ATSP,1473,      ,1513,2.175,2.72
problems/p43.atsp,43,ATSP,5620,      ,5620,1.562,0.00
problems/ftv44.atsp,45,ATSP,1613,      ,1744,3.091,8.12
problems/ry48p.atsp,48,ATSP,14422,      ,14422,7.873,0.00
problems/ftv47.atsp,48,ATSP,1776,      ,2001,6.122,12.67
problems/ft53.atsp,53,ATSP,6905,      ,7681,17.581,11.24
problems/ftv55.atsp,56,ATSP,1608,      ,1760,7.707,9.45
problems/ftv64.atsp,65,ATSP,1839,      ,2246,19.251,22.13
