Name,Size,Type,Exact,SA,Result,Time,q%
problem_all/br17.atsp,17,ATSP,39,      ,39,50.402,0.00
problem_all/ftv33.atsp,34,ATSP,1286,      ,1363,70.807,5.99
problem_all/ftv35.atsp,36,ATSP,1473,      ,1623,72.427,10.18
problem_all/ftv38.atsp,39,ATSP,1530,      ,1724,74.611,12.68
problem_all/p43.atsp,43,ATSP,5620,      ,5620,67.883,0.00
problem_all/ftv44.atsp,45,ATSP,1613,      ,2040,78.452,26.47
problem_all/ftv47.atsp,48,ATSP,1776,      ,2328,80.446,31.08
problem_all/ry48p.atsp,48,ATSP,14422,      ,14534,79.547,0.78
problem_all/ft53.atsp,53,ATSP,6905,      ,9927,85.687,43.77
problem_all/ftv55.atsp,56,ATSP,1608,      ,2175,83.901,35.26
problem_all/ftv64.atsp,65,ATSP,1839,      ,2896,89.370,57.48
problem_all/ft70.atsp,70,ATSP,38673,      ,48171,96.952,24.56
problem_all/ftv70.atsp,71,ATSP,1950,      ,2995,92.249,53.59
problem_all/kro124p.atsp,100,ATSP,43834,      ,43834,110.604,0.00
problem_all/ftv170.atsp,171,ATSP,2755,      ,7807,120.325,183.38
problem_all/rbg323.atsp,323,ATSP,1326,      ,3435,120.374,159.05
problem_all/rbg358.atsp,358,ATSP,1163,      ,3746,120.152,222.10
problem_all/rbg403.atsp,403,ATSP,2465,      ,4560,120.528,84.99
problem_all/rbg443.atsp,443,ATSP,2720,      ,5164,120.632,89.85
