Name,Size,Type,Exact,GA,Result,Time,q%
problems/br17.atsp,17,ATSP,39,      ,39,0.179,0.00
problems/ftv33.atsp,34,ATSP,1286,      ,1286,0.941,0.00
problems/ftv35.atsp,36,ATSP,1473,      ,1473,1.334,0.00
problems/p43.atsp,43,ATSP,5620,      ,5620,1.924,0.00
problems/ftv44.atsp,45,ATSP,1613,      ,1613,4.524,0.00
problems/ftv47.atsp,48,ATSP,1776,      ,1794,5.086,1.01
problems/ry48p.atsp,48,ATSP,14422,      ,14422,6.279,0.00
problems/ft53.atsp,53,ATSP,6905,      ,7086,9.991,2.62
problems/ftv55.atsp,56,ATSP,1608,      ,1685,10.689,4.79
problems/ftv64.atsp,65,ATSP,1839,      ,1939,13.687,5.44
