Name,Size,Type,Exact,SA,Result,Time,q%
problems/bays29.tsp,29,TSP,2020,      ,2020,4.530,0.00
problems/swiss42.tsp,42,TSP,1273,      ,1273,3.709,0.00
problems/att48.tsp,48,TSP,10628,      ,10628,4.944,0.00
problems/eil51.tsp,51,TSP,426,      ,426,4.180,0.00
problems/berlin52.tsp,52,TSP,7542,      ,7542,4.963,0.00
problems/eil76.tsp,76,TSP,538,      ,538,4.438,0.00
problems/eil101.tsp,101,TSP,629,      ,637,4.268,1.27
