Name,Size,Type,Exact,SA,Result,Time,q%
problems/br17.atsp,17,ATSP,39,      ,39,5.433,0.00
problems/ftv33.atsp,34,ATSP,1286,      ,1331,7.380,3.50
problems/ftv35.atsp,36,ATSP,1473,      ,1594,7.497,8.21
problems/p43.atsp,43,ATSP,5620,      ,5620,7.579,0.00
problems/ftv44.atsp,45,ATSP,1613,      ,1897,8.036,17.61
problems/ftv47.atsp,48,ATSP,1776,      ,2324,8.790,30.86
problems/ry48p.atsp,48,ATSP,14422,      ,14585,8.610,1.13
problems/ft53.atsp,53,ATSP,6905,      ,9539,9.286,38.15
problems/ftv55.atsp,56,ATSP,1608,      ,2142,9.524,33.21
problems/ftv64.atsp,65,ATSP,1839,      ,2964,9.890,61.17
